Quantitative Variable Distribution – Output Generation — qvd_output • quantvariabledistribution
…
qvd_process_example
#> # A tibble: 261 × 10
#>    site     value_col value_freq value_type    mean_val median_val sd_val q1_val
#>    <chr>        <int>      <int> <chr>            <dbl>      <dbl>  <dbl>  <dbl>
#>  1 combined         0         47 ibuprofen da…     244.        371   156.     56
#>  2 combined         1          2 ibuprofen da…     244.        371   156.     56
#>  3 combined         2          2 ibuprofen da…     244.        371   156.     56
#>  4 combined         3          1 ibuprofen da…     244.        371   156.     56
#>  5 combined         7         30 ibuprofen da…     244.        371   156.     56
#>  6 combined        11          1 ibuprofen da…     244.        371   156.     56
#>  7 combined        14          3 ibuprofen da…     244.        371   156.     56
#>  8 combined        18          1 ibuprofen da…     244.        371   156.     56
#>  9 combined        19          7 ibuprofen da…     244.        371   156.     56
#> 10 combined        21          4 ibuprofen da…     244.        371   156.     56
#> # ℹ 251 more rows
#> # ℹ 2 more variables: q3_val <dbl>, output_function <chr>
…
